…
    ## Warning: Insufficient `col_types`. Guessing 1 columns.

    ## Warning in rbind(names(probs), probs_f): number of columns of result is not
    ## a multiple of vector length (arg 1)

    ## Warning: 12 parsing failures.
    ## row # A tibble: 5 x 5 col     row col    expected actual file                                        expected   <int> <chr>  <chr>    <chr>  <chr>                                       actual 1    56 bore   a double ?      'https://archive.ics.uci.edu/ml/machine-le file 2    56 stroke a double ?      'https://archive.ics.uci.edu/ml/machine-le row 3    57 bore   a double ?      'https://archive.ics.uci.edu/ml/machine-le col 4    57 stroke a double ?      'https://archive.ics.uci.edu/ml/machine-le expected 5    58 bore   a double ?      'https://archive.ics.uci.edu/ml/machine-le
    ## ... ................. ... .......................................................................... ........ .......................................................................... ...... .......................................................................... .... .......................................................................... ... .......................................................................... ... .......................................................................... ........ ..........................................................................
    ## See problems(...) for more details.

``` r
dat_85copy
```

    ## # A tibble: 205 x 26
    ##    symboling normalized_losses make     fuel_type aspirations num_of_doors
    ##        <int> <chr>             <chr>    <chr>     <chr>       <chr>       
    ##  1         3 ?                 alfa-ro gas       std         two         
    ##  2         3 ?                 alfa-ro gas       std         two         
    ##  3         1 ?                 alfa-ro gas       std         two         
    ##  4         2 164               audi     gas       std         four        
    ##  5         2 164               audi     gas       std         four        
    ##  6         2 ?                 audi     gas       std         two         
    ##  7         1 158               audi     gas       std         four        
    ##  8         1 ?                 audi     gas       std         four        
    ##  9         1 158               audi     gas       turbo       four        
    ## 10         0 ?                 audi     gas       turbo       two         
    ## # ... with 195 more rows, and 20 more variables: body_style <chr>,
    ## #   drive_wheels <chr>, engine_location <chr>, wheel_base <dbl>,
    ## #   length <dbl>, width <dbl>, height <dbl>, curb_weight <dbl>,
    ## #   engine_type <chr>, num_of_cylinders <chr>, engine_size <int>,
    ## #   fuel_system <chr>, bore <dbl>, stroke <dbl>, compression_ratio <dbl>,
    ## #   horsepower <int>, peak_rpm <int>, city_mpg <int>, highway_mpg <int>,
    ## #   price <chr>
…
